\relax 
\providecommand\hyper@newdestlabel[2]{}
\providecommand\HyperFirstAtBeginDocument{\AtBeginDocument}
\HyperFirstAtBeginDocument{\ifx\hyper@anchor\@undefined
\global\let\oldcontentsline\contentsline
\gdef\contentsline#1#2#3#4{\oldcontentsline{#1}{#2}{#3}}
\global\let\oldnewlabel\newlabel
\gdef\newlabel#1#2{\newlabelxx{#1}#2}
\gdef\newlabelxx#1#2#3#4#5#6{\oldnewlabel{#1}{{#2}{#3}}}
\AtEndDocument{\ifx\hyper@anchor\@undefined
\let\contentsline\oldcontentsline
\let\newlabel\oldnewlabel
\fi}
\fi}
\global\let\hyper@last\relax 
\gdef\HyperFirstAtBeginDocument#1{#1}
\providecommand\HyField@AuxAddToFields[1]{}
\providecommand\HyField@AuxAddToCoFields[2]{}
\bibstyle{elsarticle-num}
\urlauthor{www.elsevier.com}{Elsevier Inc}
\emailauthor{support@elsevier.com}{Global Customer Service\corref {mycorrespondingauthor}}
\Newlabel{mytitlenote}{1}
\Newlabel{mycorrespondingauthor}{1}
\Newlabel{myfootnote}{1}
\Newlabel{mymainaddress}{a}
\Newlabel{mysecondaryaddress}{b}
\@writefile{toc}{\contentsline {section}{\numberline {1}The Elsevier article class}{1}{section.1}}
\@writefile{toc}{\contentsline {paragraph}{Installation}{1}{section*.1}}
\@writefile{toc}{\contentsline {paragraph}{Usage}{1}{section*.2}}
\@writefile{toc}{\contentsline {paragraph}{Functionality}{2}{section*.3}}
\@writefile{toc}{\contentsline {section}{\numberline {2}Front matter}{2}{section.2}}
\@writefile{toc}{\contentsline {subsection}{\numberline {2.1}Tables}{2}{subsection.2.1}}
\citation{Feynman1963118,Dirac1953888}
\bibdata{mybibfile}
\bibcite{Feynman1963118}{{1}{}{{}}{{}}}
\bibcite{Dirac1953888}{{2}{}{{}}{{}}}
\providecommand\NAT@force@numbers{}\NAT@force@numbers
\@writefile{toc}{\contentsline {subsection}{\numberline {2.2}Section headings}{3}{subsection.2.2}}
\@writefile{toc}{\contentsline {section}{\numberline {3}Figures and tables}{3}{section.3}}
\@writefile{toc}{\contentsline {section}{\numberline {4}Bibliography styles}{3}{section.4}}
\@writefile{toc}{\contentsline {section}{\numberline {5}Acknowledgements}{3}{section.5}}
